﻿{
"设备编号已存在，请重新输入":"このファイルは既に存在します！本当に上書きしますか",
"提交失败":"登録に失敗しました",
"提交成功":"登録に成功しました",
"新增修改命令参数失败":"パラメーター追加修正に失敗しました",
"设备编号不能为空":"シリアル番号を入れて下さい",
"管理员密码不能为空":"管理者パスワードを入力してください",
"轮询间隔时间不能为空":"ポーリングタイムを入力してください",
"上传考勤等待最长时间不能为0":"入場データアップロードに必要な最大時間を０以上にして下さい",
"通讯密钥不能为空":"暗号化キーを入力してください",
"未注册":"未登録",
"写入configure文件失败{0}":"設定ファイルの登録に失敗しました。",
"组别名称为空":"グループ名がありません",
"组别名称已存在，请重新输入":"グループ名がすでに存在します、新しい名前をつけて下さい",
"用户姓名为空":"ユーザー名を入れて下さい",
"用户ID为空":"ユーザーIDを入れて下さい",
"请选择对应组别":"グループを選択してください",
"请选择性别":"性別を選択してください",
"请先录入人脸信息或者选择一张照片":"写真を入力するか、最初に写真を選択してください",
"用户名已存在，请重新输入":"既に存在するユーザー名です、入力し直してください",
"请选择识别的图":"写真を選択してください",
"没有找到摄像头":"カメラが見つかりません",
"打开摄像头出错":"カメラを開くときにエラーが発生しました",
"男":"男性",
"女":"女性",
"状态":"状態",
"缺勤(小时":"不在時間（時間）",
"迟到":"遅刻",
"早退":"早退",
"缺下午考勤":"PM出勤記録がありません",
"缺上午考勤":"AM出勤記録がありません",
"考勤异常":"異常な入場があります",
"正常":"通常",
"该文件已存在！确定覆盖吗？":"このファイルは既に存在します！本当に上書きしますか",
"清空设备命令失败":"デバイスコマンドを空にできませんでした",
"删除人员命令失败":"ユーザーのコマンドを削除できませんでした",
"新增命令记录失败":"コマンドレコードを追加できませんでした",
"更新命令状态成功":"コマンドのステータスを正常に更新しました",
"更新命令状态失败":"コマンドのステータスを更新できませんでした",
"更新网络状态失败":"ネットワークのステータスを更新できませんでした",
"删除设备信息失败":"デバイス情報を削除できませんでした",
"更新设备记录Index失败":"デバイスレコードインデックスを更新できませんでした",
"新增设备记录失败":"デバイスレコードを追加できませんでした",
"修改设备参数失败":"デバイスレコードを追加できませんでした",
"新增接口访问记录失败":"インターフェイスアクセスレコードを追加できませんでした",
"删除所有记录失败":"レコードを空にできませんでした",
"新增时间表失败":"スケジュールを追加できませんでした",
"更新时间表失败":"スケジュールを更新できませんでした",
"新增表格字段表失败":"テーブルフィールド表を追加できませんでした",
"更新表格字段表失败":"テーブルフィールド表を更新できませんでした",
"新增记录日志失败":"レコードログを追加できませんでした",
"删除用户考勤失败":"ユーザーの出勤を削除できませんでした",
"删除设备考勤记录失败":"設備の出勤記録を削除できませんでした",
"删除组别信息失败":"グループ情報を削除できませんでした",
"新增组别失败":"グループを追加できませんでした",
"修改组别信息失败":"グループ情報を変更できませんでした",
"修改用户信息失败":"ユーザー情報を変更できませんでした",
"禁用/解禁用户信息失败":"ユーザー情報を禁止できませんでした",
"删除用户失败":"ユーザー情報を削除できませんでした",
"新增下发记录失败":"分布記録を追加できませんでした",
"设备ID，用户ID不能同时为空":"デバイスID、ユーザーIDを同時に空にすることはできません",
"更新下发记录失败":"分布記録を更新できませんでした",
"新增下发记录失败":"分布記録を追加できませんでした",
"设备编号与人员编号不能同时为空，删除下发记录失败":"デバイスID、ユーザーIDを同時に空にすることはできません",
"删除下发记录失败":"分布記録を削除できませんでした",
"新增用户失败":"新規ユーザーを追加できませんでした",
"来访者":"訪問者",
"尚未添加组别，请添加后再新增人员":"グループが追加されていないので、新しい社員を追加する前に追加してください",
"离线":"オフライン",
"修改IP后需要重启软件":"IPを変更した後、ソフトウェアを再起動する必要があります。 起動する",
"启动":"起動する",
"在线":"オンライン",
"保存成功":"正常に保存できました",
"保存失败":"保存できませんでした",
"表名":"表の名前",
"列名":"列の名前",
"数据字段名":"フィールドの名前",
"是否显示":"表示するかどうか",
"设备ID":"デバイスID",
"设备名称":"デバイス名",
"设备编号":"デバイスSN",
"第一次连接时间":"初回接続時刻",
"最后连接时间":"前回の接続時刻",
"待执行命令数目":"実行するコマンドの数",
"在线状态":"オンライン状態",
"管理员密码":"管理者パスワード",
"轮询间隔时间":"ポーリング間隔",
"是否上传考勤照片":"出勤写真をアップロードする",
"不上传":"いいえ",
"上传":"はい",
"验证方式":"検証モード",
"断网切换本地验证":"確認設定を切断する",
"语音设置":"音声設定",
"灯光设置":"照明設定",
"自动":"自動",
"常亮":"開く",
"关闭":"閉じる",
"上传考勤等待最长时间":"出勤のアップロードに必要な最大時間",
"通讯密钥":"暗号化キー",
"开启自动查询":"自動クエリーを有効にする",
"是否确定清空人脸":"顔データを本当に空にしますか",
"操作完成。":"操作が完了しました。",
"操作完成，等待设备下载所有人脸信息。":"操作完了、デバイスが顔情報をすべてダウンロードするまでお待ちください。",
"是否确定删除该设备信息":"デバイス情報を本当に削除しますか",
"数据删除成功":"データが正常に削除されました",
"是否确定清空所有数据":"本当にデータを削除しますか？",
"关闭自动查询":"自動クエリーを無効にする",
"接口名字":"インターフェイス名",
"访问时间":"訪問時間",
"错误信息":"エラーメッセージ",
"请耐心等待操作完成。":"操作が完了するまで、しばらくお待ちください。",
"人员编号":"ユーザーID",
"用户名":"ユーザー名",
"照片":"写真",
"发送状态":"送信状態",
"发送结果消息":"結果を送信しています",
"禁用状态":"禁止状態",
"等待下发":"次の送信を待っています",
"下发成功":"正常に送信されました",
"下发失败":"送信エラー",
"日志ID":"レコードID",
"工号":"従業員番号",
"身份证号码":"ID",
"性别":"性別",
"记录时间":"記録時間",
"测量温度":"測定温度",
"次序":"シーケンス",
"考勤状态":"出勤状況",
"开始时间必须小于结束时间":"開始時刻は終了時刻より短くする必要があります",
"不存在考勤照片":"出勤写真が存在しません",
"导出EXCEL不能多于65536条记录":"エクスポートエクセルの記録は65,536 件を超えてはいけません",
"文件保存成功，是否查看文件？":"正常に保存されました。ファイルを開きますか",
"请先查询记录":"最初に記録を確認してください",
"第1次":"1番目",
"第2次":"2番目",
"选择文件存放目录，选择u盘对应盘符即可，例如E：//":"ファイルストレージディレクトリとUディスクの対応するドライブ名を選択してください、例、E://",
"需要新增对应设备{0}":"新しいデバイスSNを追加する必要があります。{0}",
"未找到数据库文件":"データベースファイルが見つかりません",
"导入完成":"インポート完了",
"请输入正确IP地址":"正しいIPアドレスを入力してください",
"选择的不是升级包(upgrade.zip)，请重新选择升级文件":"アップグレードファイル名'upgrade.zip'を再度選択してください",
"设备正在升级，请稍后再重新发送":"デバイスがアップグレード中です。後で再送信してください",
"发送失败":"送信に失敗する",
"发送成功，请等待设备自动升级":"正常に送信されました、デバイスが自動的にアップグレードされるまでお待ちください",
"请输入记录":"記録を入力してください",
"读取文件错误":"ファイルの読み取り中にエラーが発生しました",
"是否确定删除该组别信息":"このグループ情報を本当に削除しますか",
"请先新增设备":"まずデバイスを追加してください",
"发送数据已完成，请插入终端更新":"データの送信が完了しました。更新するためにデバイスを電源に接続してください",
"是否确定删除该人员信息":"人事情報を本当に削除しますか",
"是否确定禁用该人员权限":"この人物の許可を本当に無効にしますか",
"是否确定解禁该人员权限":"この人物の許可を本当に無効にしますか",
"选择文件存放目录，包含表格及图片":"ファイルストレージディレクトリを選択してください、エクセルと画像を含めてください",
"选择UserInfo的文件夹":"フォルダ名Userinfoを選択してください",
"未找到excel文件":"エクセルファイルが見つかりません",
"尚未添加组别，请添加后再新增人员":"グループが追加されていないので、新しい社員を追加する前に追加してください",
"导入完成，有部分人员信息名字重复，或者没有对应ID照片，请确认":"インポート完了、重複する情報名を持っているか、対応するID写真のない社員がいます、確認してください",
"选择":"選択する",
"程序已经在运行，请不要重复打开!":"プログラムは既に実行されています、再度開かないでください",
  "关闭语音": "音声をオフにする",
  "欢迎光临": "",
  "一路顺风": "",
  "组别ID": "グループID",
  "组别名称": "グループ名",
  "禁用结果消息": "無効に結果メッセージ",
  "是否在设备": "デバイス内で",
  "保存成功。": "正常に保存できました",
  "设备最多可下载人脸10,000个，下发终止。": "デバイスは最大10000の顔をダウンロードでき、送信は終了します",
  "ID": "",
  "未上传考勤记录数量": "アップロードされなかった出席記録の数

",
  "不能为空": "は空白にできません",
  "必须输入数字":"数字を入力してください"
}